7;1;64:CF:D9:FC:95:6A;192.168.49.107
7;2;00:C6:FD:C8:CF:20;192.168.112.33
7;3;00:67:3E:19:00:98;192.168.112.28
7;4;06:5D:53:E7:72:9D;192.168.112.34
7;5;00:8A:B2:69:BB:4D;192.168.112.59
7;6;C8:DF:84:A0:CC:7B;192.168.49.84
7;7;04:04:97:0B:07:88;192.168.112.42
7;8;00:39:03:5E:86:25;192.168.112.35
7;9;46:6B:BE:D1:42:1B;192.168.112.36
7;10;06:57:9A:09:CC:C3;192.168.112.38
7;11;14:83:AA:8A:54:B2;192.168.112.40
7;12;40:06:0C:1C:6C:FD;192.168.112.39
7;13;00:53:B9:C1:77:E9;192.168.112.53
7;14;14:A2:89:7C:71:2F;192.168.112.60
7;15;00:06:9A:5B:BE:D8;192.168.112.58
7;16;3C:25:68:2B:46:CC;192.168.112.48
7;17;00:36:40:79:D7:A0;192.168.112.57
7;18;04:36:B5:2C:28:2E;192.168.112.56
7;19;06:A9:B4:1C:CC:93;192.168.112.18
7;20;00:C8:17:F5:3D:B3;192.168.112.52
7;21;02:FA:53:C9:2F:C6;192.168.112.46
7;22;00:7C:5E:6C:34:09;192.168.112.44
7;23;00:00:9E:5E:A5:94;192.168.112.43
7;24;26:0B:50:30:FF:E8;192.168.112.54
7;25;52:2B:3D:B8:B5:13;192.168.112.41
7;26;3A:CB:7B:55:E8:4A;192.168.112.50
7;27;00:1F:64:2C:09:F5;192.168.112.31
7;28;0A:A2:45:E5:E5:8D;192.168.112.30
7;29;00:9B:B9:FB:23:97;192.168.112.27
7;30;02:2F:FE:01:3E:7A;192.168.112.29
7;31;00:2F:38:55:2C:B3;192.168.112.26
7;32;00:25:7E:48:3D:AD;192.168.112.66
7;33;08:5F:24:91:FD:03;192.168.112.65
7;34;08:28:9C:5A:9D:BB;192.168.112.64
7;35;00:F8:B9:31:00:17;192.168.112.63
7;36;5C:69:4C:96:61:90;192.168.112.61
7;37;00:2F:D7:29:7B:47;192.168.112.62
7;38;08:59:47:24:5D:8E;192.168.113.190
7;39;00:96:73:79:53:29;192.168.112.51
7;40;00:85:38:A4:A1:2E;192.168.112.47
7;41;00:A3:95:2F:0E:6C;192.168.112.55
7;42;52:D5:E8:1B:75:C5;192.168.112.49
7;43;00:3D:AD:C6:EF:18;192.168.112.45
7;44;28:02:D4:1B:21:82;192.168.112.37
7;45;02:4C:28:FF:D1:2B;192.168.49.11
7;46;00:99:3D:56:82:7D;192.168.49.62
7;47;00:1E:11:24:B7:8C;192.168.112.32
7;48;04:76:04:6C:09:12;192.168.112.25
12;1;94:E3:6D:FB:82:0C;192.168.40.128
12;2;64:CF:D9:4A:C2:E4;192.168.40.126
12;3;50:33:8B:47:91:69;192.168.40.129
12;4;64:CF:D9:51:83:27;192.168.40.85
12;5;3C:A3:08:23:35:BF;192.168.40.124
12;6;34:15:13:93:F0:A5;192.168.40.123
12;7;64:CF:D9:6F:E1:A8;192.168.40.127
12;8;94:E3:6D:FA:6D:2E;192.168.40.121
12;9;C4:F3:12:EF:E0:F1;192.168.40.125
12;10;64:CF:D9:CA:49:46;192.168.40.122
12;11;64:CF:D9:6C:56:4F;192.168.40.246
12;12;64:CF:D9:67:0A:19;192.168.40.232
12;13;E8:EB:11:9B:48:F0;192.168.40.117
12;14;64:CF:D9:85:0C:22;192.168.40.254
12;15;64:CF:D9:95:CA:0C;192.168.40.110
12;16;64:CF:D9:84:FD:FD;192.168.40.107
12;17;C4:F3:12:EA:BE:2E;192.168.40.174
12;18;C4:F3:12:69:BB:47;192.168.40.175
12;19;64:CF:D9:6C:8C:A0;192.168.40.176
12;20;90:70:65:3E:88:63;192.168.40.84
12;21;64:CF:D9:CA:80:30;192.168.40.133
12;22;64:CF:D9:67:0A:79;192.168.40.134
12;23;3C:A3:08:28:98:CB;192.168.40.177
12;24;64:CF:D9:85:1A:08;192.168.40.224
12;25;C4:F3:12:EA:B4:65;192.168.40.234
12;26;64:CF:D9:96:11:4C;192.168.40.227
12;27;64:CF:D9:67:05:63;192.168.40.225
12;28;64:CF:D9:95:D5:34;192.168.40.239
12;29;50:8C:B1:D4:28:44;192.168.40.135
12;30;E8:EB:11:A7:00:4F;192.168.40.132
12;31;7C:38:66:01:5E:FB;192.168.40.82
12;32;E8:EB:11:90:8F:88;192.168.40.136
12;33;90:70:65:BA:3C:66;192.168.40.120
12;34;E8:EB:11:98:AE:C8;192.168.40.118
12;35;50:8C:B1:D7:D7:6D;192.168.40.115
12;36;88:C2:55:8C:49:50;192.168.40.119
12;37;50:8C:B1:EB:4D:B0;192.168.40.116
12;38;50:33:8B:0C:38:2F;192.168.40.113
12;39;88:C2:55:85:C5:B3;192.168.40.114
12;40;88:C2:55:3F:B3:F0;192.168.40.112
12;41;D4:36:39:10:40:2E;192.168.40.111
12;42;18:93:D7:F3:E5:3B;192.168.40.109
12;43;7C:38:66:22:96:8D;192.168.40.108
12;44;D4:36:39:1B:9B:48;192.168.40.106
12;45;90:70:65:34:A5:A5;192.168.40.103
12;46;9C:1D:58:64:F0:4B;192.168.40.104
12;47;50:8C:B1:F0:5E:03;192.168.40.105
12;48;50:33:8B:0C:E4:A8;192.168.40.102
25;1;34:15:13:8B:8A:85;192.168.48.13
25;3;90:70:65:67:70:49;192.168.40.154
25;5;34:15:13:07:E5:C4;192.168.40.151
25;8;90:70:65:3B:78:BD;192.168.49.109
25;9;00:4F:05:75:40:B7;192.168.48.32
25;10;02:80:CF:DC:25:23;192.168.48.29
25;11;9C:1D:58:66:5F:42;192.168.49.162
25;12;3C:A3:08:6B:E6:4B;192.168.49.164
25;13;00:A2:D8:E9:A3:1C;192.168.48.39
25;14;00:75:3E:7C:8E:34;192.168.48.37
25;15;04:FA:57:0E:C5:B0;192.168.49.108
25;16;0A:5C:37:16:FA:56;192.168.48.16
25;17;00:85:73:27:B6:0A;192.168.48.34
25;18;00:3C:B4:55:16:46;192.168.48.30
25;19;00:03:18:D1:2A:FF;192.168.48.38
25;20;1E:00:A7:C6:A5:9E;192.168.49.159
25;21;60:19:ED:83:57:97;192.168.48.35
25;22;06:F1:3D:3D:D9:D5;192.168.48.14
25;23;D4:36:39:10:22:5B;192.168.49.167
25;24;02:27:98:3E:A1:B8;192.168.48.15
25;25;1C:C7:C2:92:F8:11;192.168.48.20
25;26;4C:CA:10:3F:B7:5A;192.168.48.26
25;27;00:73:98:1C:C5:C3;192.168.49.48
25;28;00:2A:9E:DE:0F:D2;192.168.48.27
25;29;00:11:B6:FC:9D:C0;192.168.48.40
25;30;5E:01:73:99:B1:CC;192.168.48.22
25;31;20:99:94:6C:3E:4E;192.168.48.21
25;32;04:8E:5D:F7:2D:6F;192.168.48.25
25;33;02:14:D9:C9:7B:BD;192.168.48.24
25;34;00:EE:6F:95:E8:27;192.168.48.23
25;35;00:EC:4A:C9:BA:2E;192.168.48.19
25;36;28:C4:45:C6:5F:F9;192.168.48.4
25;37;46:56:C5:3E:74:FB;192.168.48.43
25;38;56:70:7D:07:00:B1;192.168.48.7
25;39;10:08:0E:98:1E:FE;192.168.48.92
25;40;06:DC:D7:7E:46:58;192.168.48.18
25;41;04:16:DB:62:F9:5D;192.168.48.17
25;42;08:27:EB:E4:05:1F;192.168.48.5
25;43;06:90:10:8F:88:41;192.168.48.93
25;44;04:0B:FF:1A:37:25;192.168.48.138
25;45;00:8F:3B:BD:53:8E;192.168.48.143
25;46;4A:E8:B0:16:82:B3;192.168.48.28
25;47;00:5D:6D:C9:1E:AC;192.168.48.33
25;48;06:EF:89:D2:2C:0C;192.168.48.36
26;4;94:E3:6D:FD:6B:1B;192.168.40.131
26;7;04:92:A4:57:E5:2B;192.168.40.68
26;9;A0:B0:45:00:F4:FE;192.168.1.100
26;10;02:08:DB:F2:39:F8;192.168.40.69
26;11;3C:A3:08:45:64:50;192.168.49.110
26;12;90:70:65:40:86:CE;192.168.49.128
26;13;00:2D:00:62:D9:78;192.168.40.64
26;14;90:70:65:3D:76:30;192.168.49.129
26;15;00:3C:D3:0A:B1:E8;192.168.48.3
26;16;12:25:29:9A:44:6D;192.168.40.60
26;17;90:70:65:68:93:E2;192.168.49.130
26;18;4C:F7:1B:0A:AC:0C;192.168.40.62
26;19;34:C7:44:6D:BF:2F;192.168.40.74
26;20;00:8F:EC:6D:26:1B;192.168.40.222
26;21;02:33:61:87:0E:45;192.168.48.2
26;22;44:BB:9A:48:64:A7;192.168.40.63
26;23;00:6F:8C:33:A3:88;192.168.40.66
26;24;38:D2:69:77:E0:2C;192.168.49.131
26;25;3C:A3:08:27:20:FC;192.168.49.133
26;26;30:CD:6E:31:68:66;192.168.40.70
26;27;50:F1:4A:1B:68:6B;192.168.49.135
26;28;50:F1:4A:1B:65:AE;192.168.49.137
26;29;9C:1D:58:EE:6E:08;192.168.49.138
26;30;9C:1D:58:3D:D7:8D;192.168.49.139
26;31;90:70:65:3D:7E:CA;192.168.49.142
26;32;62:EB:7A:12:42:EE;192.168.40.71
26;33;00:17:C5:A8:83:18;192.168.40.65
26;34;D4:36:39:10:67:E6;192.168.49.144
26;35;90:70:65:B7:84:C2;192.168.49.145
26;36;38:D2:69:5E:09:D2;192.168.49.146
26;37;00:EB:5D:43:84:90;192.168.40.73
26;38;90:70:65:35:4E:ED;192.168.49.147
26;39;D4:36:39:FF:C2:62;192.168.49.148
26;40;00:57:2F:97:09:D1;192.168.40.72
26;41;3C:A3:08:55:09:4B;192.168.48.31
26;42;00:1E:61:05:F3:C4;192.168.40.67
26;43;3E:5A:0F:C7:83:70;192.168.48.10
26;44;00:CE:71:82:65:0B;192.168.48.9
26;45;00:C3:50:95:1A:7A;192.168.48.11
26;46;50:0A:6C:B5:A7:3B;192.168.48.6
26;47;62:BD:32:BB:97:7F;192.168.48.12
26;48;16:28:7C:F3:02:14;192.168.48.8
27;1;90:70:65:3D:C8:59;192.168.56.169
27;2;C4:F3:12:B5:BF:35;192.168.56.7
27;3;C4:F3:12:DC:34:26;192.168.56.6
27;4;1C:8E:30:D3:63:26;192.168.112.137
27;5;46:C5:34:2E:46:5D;192.168.112.136
27;6;C4:F3:12:9F:1B:EA;192.168.56.172
27;7;94:E3:6D:CB:73:DE;192.168.57.201
27;8;54:31:4A:23:DA:17;192.168.112.132
27;9;02:78:82:8B:F4:93;192.168.112.131
27;10;00:51:89:AB:93:A1;192.168.112.134
27;11;00:CF:DB:0F:AF:44;192.168.112.133
27;12;08:17:D7:EB:D2:C2;192.168.112.135
27;13;00:F1:10:9A:5C:4D;192.168.112.124
27;14;56:27:55:09:14:10;192.168.112.126
27;15;00:51:8A:15:A0:F1;192.168.112.125
27;16;00:98:97:3B:C8:99;192.168.112.123
27;17;00:66:7B:66:72:31;192.168.112.120
27;18;04:CE:34:64:DE:D9;192.168.112.130
27;19;60:1A:E9:02:59:7A;192.168.112.122
27;20;3E:7F:FD:87:B5:D7;192.168.56.49
27;21;00:EF:9B:15:03:DD;192.168.56.67
27;22;00:5F:0F:49:60:57;192.168.112.129
27;23;00:50:7D:B0:34:F7;192.168.112.128
27;24;16:23:87:7E:8E:78;192.168.112.127
27;25;00:3F:94:4F:46:3B;192.168.112.112
27;26;00:05:18:35:06:03;192.168.112.110
27;27;58:90:91:43:9F:21;192.168.112.119
27;28;5A:57:25:A6:FD:F9;192.168.112.121
27;29;00:0D:80:BA:D9:DB;192.168.112.118
27;30;5A:1F:C4:87:1D:F4;192.168.112.117
27;31;2A:63:35:2A:37:98;192.168.112.116
27;32;00:04:F8:B7:EF:01;192.168.112.114
27;33;60:16:A1:44:26:2A;192.168.112.115
27;34;02:20:20:79:7E:B8;192.168.112.111
27;35;40:26:34:50:F6:C3;192.168.112.113
27;36;2E:A5:18:A5:9B:71;192.168.112.109
27;37;00:0F:1F:51:75:E8;192.168.112.108
27;38;62:D5:C5:C9:B1:AF;192.168.57.222
27;39;00:3E:40:6F:BB:44;192.168.57.20
27;40;12:AB:11:D0:13:CF;192.168.112.68
27;41;1A:4F:AE:9C:2C:F1;192.168.112.67
27;42;26:D1:71:AF:D2:6D;192.168.57.223
27;43;3C:A3:08:58:07:DA;192.168.56.227
27;44;3C:A3:08:57:EA:00;192.168.56.228
27;45;34:15:13:07:AC:EE;192.168.57.148
27;46;3E:D0:8B:1D:33:FF;192.168.57.219
27;47;00:70:7F:DC:D1:57;192.168.57.218
27;48;60:6A:9E:27:2D:9E;192.168.57.28
28;1;30:31:8F:83:42:93;192.168.112.92
28;2;58:32:67:A3:6E:CD;192.168.57.191
28;3;04:7D:3C:F6:02:70;192.168.113.189
28;4;00:A3:72:66:B5:DB;192.168.112.69
28;5;00:60:9A:62:93:85;192.168.56.68
28;6;2C:27:C1:65:24:06;192.168.112.97
28;7;00:66:7F:F5:8D:54;192.168.112.93
28;8;02:D5:48:4A:EF:64;192.168.112.74
28;9;04:84:9B:6A:E0:92;192.168.112.77
28;10;08:18:86:8C:DA:14;192.168.112.82
28;11;4E:09:EC:4B:59:4A;192.168.112.86
28;12;1A:78:60:21:9B:FC;192.168.112.83
28;13;42:F5:AD:3B:30:72;192.168.112.76
28;14;56:00:60:B4:36:2D;192.168.112.72
28;16;44:62:85:DB:27:59;192.168.112.73
28;17;3E:2C:19:5E:83:94;192.168.112.71
28;18;00:D4:FB:9A:23:6C;192.168.112.70
28;19;00:32:2D:C1:CC:85;192.168.112.105
28;20;30:04:89:2C:62:13;192.168.112.107
28;21;00:FD:43:DB:17:9E;192.168.112.104
28;22;42:53:53:D9:B5:02;192.168.112.101
28;23;00:62:79:49:C7:C6;192.168.112.103
28;24;02:6A:5E:86:61:52;192.168.112.106
28;25;04:27:5A:F4:F3:67;192.168.112.99
28;26;00:6E:72:A5:B8:F4;192.168.112.75
28;27;00:37:1B:B6:C1:E7;192.168.112.87
28;28;06:97:A4:D3:01:C0;192.168.112.80
28;29;00:A2:A5:6D:3A:1B;192.168.112.91
28;30;00:65:68:3E:B7:D3;192.168.112.78
28;31;00:C2:A0:BF:1B:A0;192.168.112.79
28;32;06:19:7D:69:66:68;192.168.112.88
28;33;1C:C1:8C:98:5A:17;192.168.112.90
28;34;06:A1:56:F9:0B:4B;192.168.112.96
28;35;56:4B:77:C1:60:F0;192.168.112.98
28;36;54:B6:EB:77:67:BA;192.168.112.94
28;37;46:07:3A:28:9B:EB;192.168.112.85
28;38;00:3B:F9:47:58:C2;192.168.112.95
28;39;02:DB:FB:11:31:AD;192.168.112.81
28;40;50:28:FA:DF:9C:EB;192.168.112.84
28;41;0A:A5:3B:73:E4:D8;192.168.112.89
28;42;00:0E:D5:76:F5:2A;192.168.112.100
28;43;00:9E:6A:2D:64:73;192.168.56.90
28;44;00:C3:4B:19:AC:AA;192.168.56.86
28;45;22:19:70:D4:A1:FA;192.168.56.87
28;46;00:D2:DE:6F:3B:E0;192.168.56.88
28;47;00:F0:2A:A6:58:C4;192.168.56.92
28;48;18:9B:03:59:11:A7;192.168.56.91
29;1;02:39:05:99:AC:91;192.168.113.248
29;2;3E:66:65:95:A7:50;192.168.113.245
29;3;14:57:72:E5:49:C4;192.168.113.250
29;4;36:AD:E3:13:07:D2;192.168.114.160
29;5;08:69:A7:F3:BF:E0;192.168.113.246
29;6;00:ED:58:BF:0B:DF;192.168.114.92
29;7;04:FE:E4:1B:3D:5A;192.168.113.252
29;8;00:82:61:DB:BE:3C;192.168.113.247
29;9;08:13:97:04:5F:E4;192.168.114.162
29;10;00:9E:16:B0:31:72;192.168.113.253
29;11;04:25:AC:EF:6A:14;192.168.113.249
29;12;00:78:1F:AE:92:56;192.168.114.94
29;13;1C:76:51:86:08:20;192.168.113.251
29;14;54:2B:C5:A5:19:93;192.168.114.95
29;15;54:11:57:25:2B:64;192.168.114.96
29;16;00:AF:B3:4D:27:DB;192.168.114.97
29;17;4E:79:4F:DC:0A:89;192.168.114.158
29;18;00:6B:70:83:21:14;192.168.114.99
29;19;00:6C:19:6E:C9:C7;192.168.114.98
29;20;00:1E:D8:4B:01:33;192.168.114.157
29;21;00:85:B1:EF:74:1B;192.168.114.156
29;22;00:7B:5D:33:D5:8F;192.168.114.100
29;23;00:CB:1B:3B:B7:81;192.168.114.163
29;24;00:F4:8F:57:DE:CB;192.168.114.103
29;25;62:02:48:85:09:0B;192.168.114.101
29;26;00:A7:D3:35:83:E9;192.168.114.161
29;27;00:6B:C0:B7:F5:EB;192.168.114.159
29;28;06:E0:15:8A:39:85;192.168.114.107
29;29;00:CE:81:BE:C1:03;192.168.114.110
29;30;00:76:FE:5C:C1:33;192.168.114.111
29;31;20:36:96:30:38:56;192.168.114.108
29;33;58:3A:35:11:94:73;192.168.114.106
29;34;1C:7E:85:14:60:13;192.168.114.105
29;35;06:6F:02:76:41:45;192.168.114.102
29;36;00:17:A6:4E:B4:BB;192.168.114.104
29;37;52:AA:DC:27:7E:10;192.168.114.79
29;38;06:DD:32:C0:9A:52;192.168.114.0
29;39;32:9D:EF:92:9D:5C;192.168.114.75
29;40;00:5D:65:CC:DC:3A;192.168.114.8
29;41;02:5B:5B:A0:7B:3C;192.168.114.76
29;42;00:FA:A4:CD:FC:14;192.168.113.255
29;43;00:54:E4:CC:FA:B3;192.168.114.112
29;44;56:F8:8B:AD:FC:91;192.168.113.254
29;45;00:4E:C8:06:65:1E;192.168.114.93
29;46;04:61:FA:DA:A8:C2;192.168.49.253
29;47;00:EF:D3:F4:C8:C7;192.168.48.145
29;48;4A:31:34:72:0A:74;192.168.49.254
30;1;02:83:4E:95:61:FA;192.168.113.193
30;2;00:78:51:D9:43:F9;192.168.113.196
30;3;32:25:6F:31:EC:AE;192.168.113.194
30;4;00:D1:53:42:ED:15;192.168.113.197
30;5;06:74:A1:BC:69:5D;192.168.113.195
30;6;02:09:27:5C:A2:15;192.168.113.199
30;7;04:46:43:2E:01:9C;192.168.113.200
30;8;02:E1:F1:52:50:A8;192.168.113.231
30;9;44:2B:03:63:C1:29;192.168.113.198
30;10;44:8E:2F:EF:04:F6;192.168.113.232
30;11;00:37:5F:B1:71:DF;192.168.113.201
30;12;04:A5:2E:4F:ED:DB;192.168.113.212
30;13;00:96:B9:36:C1:28;192.168.113.204
30;14;00:8B:2A:7A:4A:37;192.168.113.206
30;15;5E:A5:C7:F9:6D:CE;192.168.113.208
30;16;08:54:31:26:29:6F;192.168.113.211
30;17;42:AE:71:F4:46:76;192.168.113.202
30;18;08:86:5A:A9:CC:C5;192.168.113.203
30;19;00:41:D5:1B:73:A8;192.168.113.205
30;20;00:28:FD:23:8C:D6;192.168.113.210
30;21;00:FC:4B:33:22:A6;192.168.113.209
30;22;54:38:FB:9A:A2:E6;192.168.113.66
30;23;26:EE:ED:DD:B2:B2;192.168.113.65
30;24;00:E8:DD:E0:F6:C1;192.168.113.67
30;25;00:D6:37:1B:10:9C;192.168.113.221
30;26;00:BC:DB:F2:80:78;192.168.113.222
30;27;00:CE:AA:93:41:07;192.168.113.219
30;28;04:0C:E3:DE:64:9D;192.168.113.220
30;29;32:23:05:6D:F2:10;192.168.113.230
30;30;54:DE:B6:AB:80:C8;192.168.113.228
30;31;04:14:FC:00:B3:62;192.168.113.229
30;32;00:A0:44:BC:BB:30;192.168.114.166
30;33;02:61:4F:3D:0B:0C;192.168.113.226
30;34;00:90:AF:35:45:DD;192.168.113.224
30;35;00:8D:62:08:25:96;192.168.113.227
30;36;04:21:BC:58:08:74;192.168.113.223
30;37;00:E2:48:D1:EA:46;192.168.113.218
30;38;50:73:FB:63:CC:6C;192.168.113.217
30;39;08:0D:03:36:5E:75;192.168.113.216
30;40;00:EE:2E:42:01:04;192.168.113.214
30;41;00:97:FE:6C:51:EF;192.168.113.215
30;42;02:BE:F6:E0:33:94;192.168.113.213
30;43;1A:BD:E8:D9:29:2A;192.168.56.65
30;44;06:6D:2B:FE:EA:78;192.168.57.22
30;45;0C:FF:0B:9A:BC:08;192.168.57.26
30;46;50:33:8B:0D:A1:D8;192.168.57.25
30;47;7C:38:66:3A:2F:6D;192.168.57.23
30;48;90:70:65:B7:FE:1D;192.168.57.24
32;1;18:93:D7:D7:E6:24;192.168.40.141
32;2;3C:A3:08:4B:76:8A;192.168.40.150
32;3;9C:1D:58:3A:66:29;192.168.40.140
32;4;90:70:65:6D:BD:8A;192.168.40.152
32;5;90:70:65:39:F5:23;192.168.40.147
32;6;50:F1:4A:0D:A5:EF;192.168.40.145
32;7;50:33:8B:50:7C:23;192.168.40.139
32;8;90:70:65:62:1D:BE;192.168.40.146
32;9;7C:38:66:0F:9A:75;192.168.40.153
32;10;D4:36:39:1C:FC:A9;192.168.40.155
32;11;90:70:65:90:9A:00;192.168.40.143
32;12;50:F1:4A:10:19:FF;192.168.40.149
32;13;9C:1D:58:63:20:C0;192.168.40.144
32;14;50:F1:4A:10:34:0B;192.168.40.137
32;15;7C:38:66:0F:D8:E3;192.168.40.142
32;16;50:F1:4A:26:90:9A;192.168.40.148
32;17;50:33:8B:41:EB:D3;192.168.40.171
32;18;90:70:65:65:DB:71;192.168.40.169
32;19;E8:EB:11:96:59:86;192.168.40.165
32;20;90:70:65:33:8B:72;192.168.40.159
32;21;9C:1D:58:3F:38:3D;192.168.40.162
32;22;34:15:13:05:03:A6;192.168.40.161
32;23;90:70:65:66:FA:14;192.168.40.167
32;24;90:70:65:BA:E6:FA;192.168.40.163
32;25;90:70:65:BA:CF:3D;192.168.40.168
32;26;7C:38:66:0F:D1:9E;192.168.40.170
32;27;E8:EB:11:98:B8:7A;192.168.40.156
32;28;88:C2:55:3D:81:1B;192.168.40.158
32;29;9C:1D:58:47:F6:32;192.168.40.164
32;30;90:70:65:66:FE:E0;192.168.40.160
32;31;3C:A3:08:67:0F:30;192.168.40.157
32;32;18:93:D7:F3:DB:45;192.168.40.166
34;1;00:8D:E1:B2:C5:55;192.168.1.118
34;2;04:95:A7:97:4C:A8;192.168.1.121
34;3;00:B1:28:EF:DB:E3;192.168.1.119
34;4;5C:D3:7B:3E:E3:B1;192.168.1.120
34;5;00:8E:0E:70:1E:3A;192.168.1.111
34;6;0A:66:C6:FA:07:64;192.168.1.110
34;7;94:E3:6D:AE:45:70;192.168.114.167
34;8;00:CF:DD:82:E0:13;192.168.1.123
34;9;22:40:89:BB:54:0D;192.168.1.127
34;10;00:6C:A3:88:D4:78;192.168.1.128
34;11;0C:AA:42:0E:D0:AC;192.168.1.109
34;12;00:CA:84:64:D8:FC;192.168.1.114
34;13;02:04:53:02:C6:A3;192.168.1.115
34;14;60:6B:4D:85:38:85;192.168.1.117
34;15;00:80:CF:B9:2D:73;192.168.1.134
34;16;1A:58:B4:B8:5A:91;192.168.1.141
34;17;08:D9:C6:1D:45:7A;192.168.1.140
34;18;34:1D:25:FC:DF:A6;192.168.1.122
34;19;00:36:2C:EA:EC:C3;192.168.1.116
34;20;00:BD:4B:C2:D7:53;192.168.1.113
34;21;22:84:8D:F4:6D:31;192.168.1.112
34;22;00:C5:96:5E:36:A4;192.168.1.146
34;23;26:7F:03:03:3C:AB;192.168.1.144
34;24;00:F4:82:A0:B6:AD;192.168.1.143
34;25;56:58:8E:28:FF:F7;192.168.1.102
34;26;00:FB:4A:F5:79:D6;192.168.1.101
34;27;06:9C:B7:AE:1B:8F;192.168.1.98
34;28;08:2D:CA:CA:DB:F5;192.168.1.99
34;29;5A:7D:8A:FD:6A:0B;192.168.1.139
34;30;32:D6:5D:FF:C6:16;192.168.1.138
34;31;00:EF:B8:45:9A:72;192.168.1.137
34;32;02:F6:B5:B7:89:A1;192.168.1.135
34;33;64:CF:D9:CD:5B:3D;192.168.1.133
34;34;C4:F3:12:CF:E5:B0;192.168.1.132
34;35;00:9E:46:07:C6:F8;192.168.1.103
34;36;00:6D:73:73:D0:C5;192.168.1.131
34;37;4A:61:BB:DD:4C:8E;192.168.1.130
34;38;02:81:B3:82:83:83;192.168.1.129
34;39;00:21:F6:36:FF:F8;192.168.1.107
34;40;00:85:CA:CA:51:F0;192.168.1.105
34;41;3C:A3:08:49:07:CF;192.168.1.136
34;42;04:3C:71:91:DB:98;192.168.1.104
34;43;02:C8:E4:63:60:2C;192.168.1.125
34;44;00:94:30:AA:03:77;192.168.1.126
34;45;00:56:D8:C9:45:36;192.168.1.124
34;46;18:93:D7:E2:55:E4;192.168.1.142
34;47;1A:5E:86:B9:27:2E;192.168.1.254
34;48;00:58:62:B0:EE:22;192.168.1.106
41;1;00:40:09:04:E2:E3;192.168.113.56
41;2;00:89:CF:C0:C4:63;192.168.113.55
41;3;4E:78:7F:FD:D3:19;192.168.114.170
41;4;06:D6:D1:9F:15:F9;192.168.113.192
41;5;00:F8:39:2B:8F:45;192.168.113.52
41;6;44:4C:56:67:CC:3A;192.168.113.57
41;7;06:D7:09:21:CC:FD;192.168.113.53
41;8;02:73:88:99:60:77;192.168.48.211
41;9;54:BF:A9:03:22:E3;192.168.48.130
41;10;3E:9E:DF:03:F8:2B;192.168.48.210
41;11;00:9D:E2:44:D9:A5;192.168.48.209
41;12;54:E9:A8:C3:80:A4;192.168.48.208
41;13;14:22:E0:01:8D:D0;192.168.48.212
41;14;56:51:71:09:40:5C;192.168.48.214
41;15;08:C6:1D:B6:2B:3B;192.168.48.213
41;16;00:99:1C:A4:31:55;192.168.48.215
41;17;02:9A:83:FF:E7:3F;192.168.48.216
41;18;08:E2:8A:0B:C9:56;192.168.48.217
41;19;02:ED:BC:7A:42:03;192.168.48.218
41;20;32:3F:8C:3B:8E:1E;192.168.49.39
41;21;00:A8:61:08:E5:88;192.168.48.235
41;22;00:39:23:47:E2:9C;192.168.48.249
41;23;44:54:B4:F1:5A:5D;192.168.48.233
41;24;4E:9B:01:A7:F6:03;192.168.48.252
41;25;0E:22:71:34:96:F0;192.168.48.250
41;26;00:65:AF:31:E0:26;192.168.48.236
41;27;04:66:C4:A4:A6:2A;192.168.113.64
41;28;12:C9:64:24:BE:E7;192.168.48.198
41;29;00:B4:45:E7:C8:97;192.168.48.234
41;30;62:AC:E9:9A:D0:36;192.168.48.251
41;31;3C:58:DA:03:16:40;192.168.48.254
41;32;3E:5A:37:29:63:95;192.168.113.61
41;33;00:CF:B3:77:AE:EA;192.168.48.206
41;34;12:51:E9:EE:FE:64;192.168.48.238
41;35;46:5F:09:E7:7C:21;192.168.48.222
41;36;08:C4:2A:0E:DF:36;192.168.113.62
41;37;5E:E1:13:0C:F8:8A;192.168.48.248
41;38;08:6B:4A:6B:6C:CC;192.168.113.63
41;39;00:93:B8:8B:16:C7;192.168.48.240
41;40;02:CA:5D:81:C2:C0;192.168.48.187
41;41;32:F9:AF:16:EB:D8;192.168.113.59
41;42;5C:E2:4F:A3:6E:94;192.168.48.220
41;43;3C:F4:A3:AC:FB:63;192.168.48.200
41;44;00:62:CA:71:45:9B;192.168.48.205
41;45;34:4E:63:D5:CD:BE;192.168.113.60
41;46;08:C2:CE:DE:2F:44;192.168.113.58
41;47;00:7C:7C:DC:0F:7E;192.168.48.241
41;48;08:CC:C9:F7:C6:E4;192.168.48.202
44;1;3A:51:D0:8D:F8:EB;192.168.112.24
44;2;50:33:8B:0E:40:02;192.168.1.173
44;3;50:33:8B:49:4C:51;192.168.1.172
44;4;50:33:8B:03:C4:20;192.168.1.251
44;5;50:F1:4A:1C:F1:9B;192.168.1.174
44;6;08:25:85:75:F6:09;192.168.1.176
44;7;08:F5:30:2E:92:51;192.168.1.97
44;8;02:48:5D:E0:36:4D;192.168.64.233
44;9;10:9E:92:37:83:10;192.168.64.228
44;10;4A:31:72:07:E7:7F;192.168.64.230
44;11;00:CC:20:6D:04:6C;192.168.64.229
44;12;42:DA:B3:A1:38:A3;192.168.64.227
44;13;04:E0:25:55:EB:0F;192.168.64.231
44;14;00:81:63:9A:F5:60;192.168.64.238
44;15;4A:4D:36:96:FE:19;192.168.64.234
44;16;50:CB:98:AB:AC:A3;192.168.64.236
44;17;06:93:71:B1:CC:22;192.168.64.237
44;18;44:47:91:C8:7A:D6;192.168.64.235
44;19;2E:59:05:80:58:D5;192.168.1.157
44;20;36:13:35:D2:B3:06;192.168.1.156
44;21;60:2B:BF:D4:C3:D2;192.168.1.253
44;22;08:11:A6:3A:4C:AC;192.168.88.254
44;23;90:70:65:70:3D:08;192.168.88.251
44;24;90:70:65:70:26:6D;192.168.88.253
44;25;18:93:D7:F3:D5:73;192.168.88.252
44;26;50:33:8B:4D:B2:67;192.168.88.250
44;27;50:6C:BE:08:C1:B5;192.168.1.158
44;28;00:D2:A2:AD:13:4E;192.168.1.147
44;29;C4:F3:12:6A:D3:DC;192.168.1.161
44;30;00:71:6B:18:2A:D7;192.168.112.21
44;31;3C:A3:08:44:87:E2;192.168.1.164
44;32;64:CF:D9:41:C8:AB;192.168.1.163
44;33;64:CF:D9:41:CE:AE;192.168.1.162
44;34;50:33:8B:49:B2:27;192.168.1.160
44;35;3C:A3:08:44:D2:77;192.168.1.165
44;36;42:6D:9A:D7:41:B2;192.168.112.19
44;37;00:BE:C9:BF:50:52;192.168.112.17
44;38;00:FA:FB:98:23:B4;192.168.112.20
44;39;00:71:A9:21:70:12;192.168.112.23
44;40;04:42:5A:C9:34:FE;192.168.112.22
44;41;08:80:10:7B:8F:17;192.168.1.149
44;42;94:E3:6D:F4:06:11;192.168.1.166
44;43;90:70:65:3F:C8:50;192.168.1.170
44;44;64:CF:D9:41:C8:93;192.168.1.168
44;45;38:D2:69:6B:37:7B;192.168.1.167
44;46;64:CF:D9:C8:C5:E6;192.168.1.145
44;47;9C:1D:58:63:84:42;192.168.1.169
44;48;34:15:13:09:A9:A7;192.168.1.171
46;1;94:E3:6D:E0:7C:95;192.168.56.24
46;2;94:E3:6D:E0:CB:DC;192.168.56.23
46;4;94:E3:6D:FF:98:2E;192.168.57.27
46;5;94:E3:6D:E0:CB:DF;192.168.56.98
46;6;00:C1:9C:DB:8E:F0;192.168.40.178
46;7;04:CC:69:A3:0B:A0;192.168.40.179
46;8;04:49:D2:CC:D6:B8;192.168.56.18
46;9;00:F5:32:D0:D7:D5;192.168.56.19
46;10;00:01:AC:97:AA:6B;192.168.56.75
46;11;00:B3:95:6D:0F:99;192.168.56.20
46;12;40:98:78:27:A7:94;192.168.56.25
46;13;00:35:EF:7E:A8:2B;192.168.56.33
46;14;0A:0D:76:62:A1:61;192.168.56.56
46;15;00:E2:CD:62:E5:6B;192.168.56.31
46;16;06:BE:88:00:5D:AA;192.168.56.63
46;17;02:B2:3D:D8:47:25;192.168.56.30
46;18;00:12:12:00:C8:4D;192.168.56.66
46;19;00:0A:35:00:01:22;192.168.56.34
46;20;00:5D:54:3E:03:19;192.168.56.29
46;21;02:0A:12:15:EA:3E;192.168.56.32
46;22;1A:89:B2:40:07:A0;192.168.56.82
46;23;02:EB:EE:DB:AB:5D;192.168.56.83
46;24;00:63:5B:B5:92:A0;192.168.56.84
46;25;90:70:65:BA:50:8A;192.168.56.104
46;26;90:70:65:9C:2C:EF;192.168.56.101
46;27;06:06:8A:EE:49:03;192.168.56.121
46;28;00:5A:D9:89:E7:78;192.168.112.16
46;29;9C:1D:58:3C:95:41;192.168.56.94
46;30;9C:1D:58:ED:A5:EE;192.168.56.95
46;31;9C:1D:58:EE:46:B1;192.168.56.231
46;32;90:70:65:67:29:BF;192.168.56.99
46;33;C4:F3:12:D0:62:97;192.168.56.96
46;34;50:33:8B:3A:47:BD;192.168.56.85
46;35;9C:1D:58:3C:B2:62;192.168.56.97
46;36;00:40:20:B3:A1:F5;192.168.57.246
46;37;02:67:F4:B4:98:1B;192.168.57.247
46;38;36:0D:A4:BE:D0:50;192.168.57.245
46;39;06:67:23:8E:65:7A;192.168.57.242
46;40;00:6B:FD:E7:A0:04;192.168.57.244
46;41;1A:BE:7D:5D:5F:AB;192.168.56.11
46;42;3E:DE:8A:AD:0F:ED;192.168.57.243
46;43;00:9C:E9:0D:69:DC;192.168.112.9
46;44;30:D7:88:40:5E:13;192.168.56.15
46;45;00:C3:21:4A:8F:3D;192.168.112.15
46;46;06:A6:FF:81:40:83;192.168.112.14
46;47;00:D3:E3:FB:BD:B1;192.168.112.13
46;48;00:7A:64:33:19:24;192.168.112.12
47;1;34:15:13:08:BF:26;192.168.56.26
47;2;34:15:13:0E:A8:3D;192.168.56.27
47;3;94:E3:6D:AE:C7:C5;192.168.56.28
47;4;34:15:13:02:95:29;192.168.57.189
47;5;94:E3:6D:F6:32:0A;192.168.56.124
47;6;94:E3:6D:E0:87:C6;192.168.56.125
47;7;3C:A3:08:1D:30:41;192.168.56.123
47;8;00:2B:AB:BA:73:B2;192.168.56.21
47;9;32:55:7D:3D:0B:BD;192.168.56.22
47;10;00:6D:AA:53:B4:23;192.168.56.132
47;11;00:E2:E8:D4:09:2C;192.168.57.235
47;12;18:93:D7:F3:FD:5C;192.168.56.128
47;13;18:93:D7:FE:1C:CB;192.168.56.126
47;14;50:33:8B:51:5E:A9;192.168.56.127
47;15;5E:2F:2F:1F:6C:25;192.168.56.73
47;16;00:AB:98:69:D8:92;192.168.56.89
47;17;58:02:93:A3:3C:63;192.168.56.35
47;18;04:07:22:2E:12:E7;192.168.56.71
47;19;4E:D4:F7:95:64:F3;192.168.57.236
47;20;08:A7:EF:05:85:3A;192.168.57.237
47;21;08:74:6E:AA:89:FD;192.168.57.238
47;22;08:19:76:60:92:57;192.168.56.5
47;23;20:33:FE:2A:90:FC;192.168.57.254
47;24;42:3A:94:D4:7E:11;192.168.56.16
47;25;06:B0:79:2D:7D:23;192.168.56.105
47;26;06:E0:C2:0A:C3:03;192.168.57.29
47;27;00:F9:88:72:F8:09;192.168.56.107
47;28;02:DD:32:63:2D:21;192.168.56.108
47;29;00:F3:20:79:50:BE;192.168.56.14
47;30;00:D8:04:D7:A4:7D;192.168.56.8
47;31;50:57:91:BA:92:BA;192.168.56.10
47;32;02:1B:20:16:06:5B;192.168.56.9
47;33;08:CC:86:DE:C5:72;192.168.56.114
47;34;04:C0:6F:0F:CE:55;192.168.56.110
47;35;00:62:DC:AB:F9:24;192.168.56.109
47;36;2C:F8:71:9A:C0:7E;192.168.57.248
47;37;28:79:D0:C3:7A:5E;192.168.57.250
47;38;00:8F:E1:B2:C8:E0;192.168.57.241
47;39;32:4C:E5:B3:84:15;192.168.56.115
47;40;54:72:46:D4:11:0D;192.168.56.113
47;41;00:FE:BE:98:AE:23;192.168.56.112
47;42;08:2A:2A:A5:FC:AA;192.168.56.111
47;43;58:13:1C:76:62:EF;192.168.57.240
47;44;02:5A:48:C3:5F:13;192.168.57.21
47;45;36:42:A8:7C:EA:25;192.168.57.239
47;46;00:D2:64:97:F4:7F;192.168.56.117
47;47;44:D8:38:01:38:11;192.168.56.118
47;48;12:F8:53:46:BD:A0;192.168.56.116
48;1;3C:A3:08:53:EA:DE;192.168.48.74
48;2;90:70:65:6D:C5:68;192.168.48.76
48;3;94:E3:6D:CD:0E:C9;192.168.48.78
48;4;94:E3:6D:DA:E9:90;192.168.48.79
48;5;3C:A3:08:54:0D:66;192.168.48.77
48;6;3C:A3:08:49:AE:21;192.168.48.80
48;7;94:E3:6D:FC:E7:A8;192.168.48.81
48;8;34:15:13:0E:65:23;192.168.48.69
48;9;3C:A3:08:76:AC:F9;192.168.48.67
48;10;3C:A3:08:54:CD:E0;192.168.48.72
48;11;94:E3:6D:BA:62:C6;192.168.48.71
48;12;34:15:13:0E:74:0B;192.168.48.70
48;13;3C:A3:08:75:EC:10;192.168.48.73
48;14;34:15:13:0A:25:F4;192.168.48.75
48;15;94:E3:6D:B8:98:D7;192.168.48.63
48;16;64:CF:D9:4A:FE:78;192.168.49.106
48;17;34:15:13:0A:2F:FC;192.168.48.64
48;18;3C:A3:08:52:5A:92;192.168.48.62
48;19;3C:A3:08:61:C4:BE;192.168.48.65
48;20;3C:A3:08:76:95:61;192.168.48.66
48;21;34:15:13:05:43:C9;192.168.48.68
48;22;50:33:8B:42:E2:46;192.168.48.56
48;23;42:79:57:2A:7C:7E;192.168.48.45
48;24;50:33:8B:41:9F:4F;192.168.48.57
48;25;34:15:13:0E:7F:7B;192.168.48.58
48;26;50:33:8B:41:9C:CB;192.168.48.59
48;27;50:33:8B:42:E5:9A;192.168.48.60
48;28;3C:A3:08:61:89:EA;192.168.48.61
48;29;00:36:2E:AF:E2:49;192.168.49.41
48;30;04:B7:4B:0E:A5:CA;192.168.49.42
48;31;04:AF:36:D2:52:8F;192.168.48.41
48;32;34:15:13:0A:43:70;192.168.48.53
48;33;94:E3:6D:FD:38:45;192.168.48.54
48;34;00:FC:90:F4:16:EB;192.168.48.44
48;35;34:15:13:0A:2B:9D;192.168.48.55
48;36;9C:1D:58:62:B6:88;192.168.48.46
48;37;00:C2:E0:BB:52:F6;192.168.49.43
48;38;94:E3:6D:FD:31:C1;192.168.48.48
48;39;94:E3:6D:B9:72:18;192.168.48.49
48;40;3C:A3:08:53:E7:51;192.168.48.50
48;41;3C:A3:08:54:03:13;192.168.48.51
48;42;3C:A3:08:52:07:42;192.168.48.52
48;43;20:9F:D8:1C:B8:67;192.168.49.44
48;44;F0:45:DA:52:66:D0;192.168.49.47
48;45;00:A3:63:85:AF:A0;192.168.48.42
48;46;34:15:13:93:87:57;192.168.49.46
48;47;3C:A3:08:52:3B:CD;192.168.48.47
48;48;02:49:2B:F0:F1:6F;192.168.49.45
51;1;00:45:09:5E:78:55;192.168.48.106
51;2;26:74:8D:D1:71:D1;192.168.48.105
51;3;50:DD:45:57:79:B5;192.168.48.104
51;4;12:EB:B9:D4:0D:61;192.168.48.103
51;5;00:6C:77:43:A8:1B;192.168.48.98
51;6;00:D9:0E:2F:AE:D6;192.168.48.99
51;7;00:CE:4B:42:27:A7;192.168.48.101
51;8;1A:24:E7:82:D8:C3;192.168.48.95
51;9;22:6E:46:E8:C4:7E;192.168.48.94
51;10;00:69:8E:16:22:CB;192.168.49.0
51;11;00:7F:61:55:D4:1E;192.168.49.1
51;12;52:3C:9E:D0:AA:2F;192.168.48.91
51;13;3A:D4:CF:B2:A4:66;192.168.48.89
51;14;3C:A6:AA:A6:F8:12;192.168.48.88
51;15;58:97:AD:AC:37:25;192.168.48.86
51;16;00:1C:AA:B2:58:9D;192.168.48.87
51;17;1E:0D:A4:CE:36:2B;192.168.48.85
51;18;00:0D:DE:0A:CC:5A;192.168.48.84
51;19;40:2B:A7:29:0F:92;192.168.48.82
51;20;00:5D:B3:66:48:CE;192.168.48.147
51;21;12:FB:DC:77:5A:4A;192.168.48.90
51;22;00:C1:A0:82:FD:9A;192.168.48.100
51;23;00:60:D4:6C:E2:1A;192.168.48.97
51;24;08:16:71:76:E2:60;192.168.48.127
51;25;00:38:41:3D:DF:8A;192.168.48.96
51;26;00:67:89:FA:1B:3F;192.168.48.129
51;27;04:A9:67:12:42:FD;192.168.48.125
51;28;00:D3:1F:CB:9C:78;192.168.48.219
51;29;00:9D:D7:DB:3D:D2;192.168.48.123
51;30;34:7C:A7:10:66:A1;192.168.48.124
51;31;00:C2:EB:B3:9F:7F;192.168.48.122
51;32;00:E9:FA:8F:EE:51;192.168.48.128
51;33;08:AE:79:BB:FF:79;192.168.48.121
51;34;00:E5:05:FE:A5:80;192.168.48.120
51;35;00:7C:BE:A9:7B:63;192.168.48.118
51;36;00:99:3F:9A:EC:B7;192.168.48.119
51;37;26:3D:16:67:24:5B;192.168.48.117
51;38;04:CA:08:5F:E3:01;192.168.48.115
51;39;06:2A:CF:4B:74:77;192.168.48.114
51;40;06:B3:96:8A:D0:D9;192.168.48.113
51;41;5C:0E:4C:47:88:5C;192.168.48.112
51;42;0E:76:E7:A2:7C:06;192.168.48.111
51;43;00:1F:08:C5:FD:26;192.168.49.251
51;44;10:E8:73:7B:31:C2;192.168.48.116
51;45;1A:8C:A0:7E:1A:D1;192.168.48.109
51;46;04:3E:20:45:38:CC;192.168.48.108
51;47;08:76:7F:EE:71:79;192.168.48.107
51;48;00:13:B7:72:9B:7D;192.168.48.102
53;1;24:86:B1:B5:15:0F;192.168.57.230
53;2;48:5F:59:BA:CA:F9;192.168.57.229
53;3;06:30:C9:99:12:C2;192.168.56.72
53;4;C4:F3:12:D8:1D:9B;192.168.56.54
53;5;02:53:F9:3A:2C:C4;192.168.113.49
53;6;C4:F3:12:70:30:ED;192.168.56.55
53;7;00:25:EB:51:3F:FE;192.168.113.48
53;8;00:00:68:B0:4E:2B;192.168.56.46
53;9;06:33:FB:DB:0E:2A;192.168.56.48
53;10;04:12:8C:27:A1:15;192.168.113.47
53;11;3C:D0:9D:00:48:91;192.168.113.50
53;12;00:4F:D2:94:5A:B3;192.168.56.47
53;13;00:2F:01:AC:EE:BF;192.168.56.50
53;14;1E:EA:C4:79:E7:62;192.168.113.46
53;15;60:21:C3:15:73:02;192.168.56.12
53;16;00:F0:73:0D:58:84;192.168.112.5
53;17;54:7E:8E:BC:E8:7A;192.168.56.45
53;18;3C:8D:30:EB:20:61;192.168.112.4
53;19;2C:B3:37:BE:1B:80;192.168.112.6
53;20;00:36:45:F2:4F:8D;192.168.112.3
53;21;04:79:54:80:94:0E;192.168.112.2
53;22;04:64:33:11:69:D2;192.168.56.80
53;23;04:ED:4A:CE:14:A0;192.168.112.7
53;24;00:C9:9E:CB:06:D5;192.168.113.44
53;25;00:50:BA:4C:7B:EC;192.168.113.43
53;26;04:E9:21:26:03:D9;192.168.113.45
53;27;00:CB:BD:C9:0C:CA;192.168.56.77
53;28;00:DD:54:96:63:66;192.168.57.228
53;29;00:C8:2E:2F:AE:D3;192.168.56.62
53;30;00:B7:72:E4:AC:AF;192.168.56.81
53;31;00:00:FE:76:EA:33;192.168.56.74
53;32;00:30:D6:C2:09:08;192.168.112.10
53;33;00:10:96:10:96:6F;192.168.56.70
53;34;62:B1:C4:6A:B9:07;192.168.112.11
53;35;32:F7:16:5A:EA:3C;192.168.56.76
53;36;00:06:D4:27:6D:F9;192.168.56.60
53;37;9C:1D:58:5E:F2:9A;192.168.57.232
53;38;90:70:65:40:A1:70;192.168.56.160
53;39;90:70:65:BB:93:E0;192.168.56.159
53;40;00:26:52:C9:1D:FF;192.168.56.57
53;41;C4:F3:12:71:F1:04;192.168.56.161
53;42;00:95:4B:32:A4:81;192.168.112.8
53;43;94:E3:6D:F1:27:BC;192.168.57.233
53;45;2C:AA:CE:15:B9:8E;192.168.57.227
53;46;00:84:7C:A9:C1:BB;192.168.56.61
53;47;00:50:0B:FF:8C:4E;192.168.56.58
53;48;64:CF:D9:4D:65:F0;192.168.57.234
54;1;90:70:65:3D:F8:B5;192.168.48.176
54;2;90:70:65:3E:04:67;192.168.48.178
54;3;C4:F3:12:D7:46:07;192.168.49.179
54;4;44:DC:6D:0F:F6:5A;192.168.48.150
54;5;00:E5:BA:6D:05:25;192.168.48.151
54;6;08:A4:16:17:76:4B;192.168.48.144
54;7;00:29:AA:78:68:54;192.168.48.247
54;8;00:A0:CA:43:47:C1;192.168.48.245
54;9;00:8C:CB:AC:BD:F7;192.168.48.246
54;10;40:7C:81:86:19:AB;192.168.48.243
54;11;00:A0:E5:E1:3B:F1;192.168.48.221
54;12;00:E7:53:C1:20:F5;192.168.48.201
54;13;48:21:DB:76:D8:E2;192.168.48.131
54;14;5C:B3:55:16:FD:37;192.168.48.185
54;15;00:2F:1C:CB:37:FB;192.168.48.146
54;16;00:29:D3:87:6C:D6;192.168.48.194
54;17;00:1A:22:6B:F9:93;192.168.48.225
54;18;00:11:75:4D:A2:F3;192.168.48.255
54;19;00:EE:A2:67:03:77;192.168.48.244
54;20;34:59:2B:1B:77:4B;192.168.48.180
54;21;50:A5:59:D7:6A:80;192.168.48.203
54;22;06:CA:E7:B9:39:B1;192.168.48.253
54;23;04:BB:FE:28:99:0E;192.168.48.179
54;24;2A:72:A8:08:20:5B;192.168.48.155
54;25;4C:1B:6F:67:36:6C;192.168.48.193
54;26;10:D6:AF:A5:E7:4F;192.168.113.86
54;27;54:CF:26:81:BD:65;192.168.113.84
54;28;52:44:35:20:84:30;192.168.113.82
54;29;00:22:ED:61:5F:D0;192.168.113.81
54;30;02:57:9B:93:A8:A5;192.168.113.80
54;31;00:AE:55:7E:69:87;192.168.113.78
54;32;00:D2:99:73:DC:02;192.168.113.76
54;33;62:50:0E:E0:55:89;192.168.113.75
54;34;00:87:8E:AF:E5:39;192.168.113.73
54;35;00:1F:A4:BC:7A:99;192.168.113.71
54;36;04:87:57:51:A2:34;192.168.113.187
54;37;32:69:64:07:24:96;192.168.113.184
54;38;00:E9:90:34:79:36;192.168.113.186
54;39;00:8E:A9:3D:FF:D0;192.168.113.185
54;40;08:A7:9A:30:BA:4A;192.168.113.79
54;41;28:89:7A:44:82:78;192.168.113.77
54;42;00:21:30:E5:19:0F;192.168.113.68
54;43;00:70:2C:86:93:81;192.168.113.188
54;44;00:FC:80:2D:28:E1;192.168.113.74
54;45;02:E0:3A:9D:EB:F0;192.168.113.72
54;46;00:2D:E6:5F:C8:51;192.168.113.70
54;47;42:E2:02:50:DB:56;192.168.113.83
54;48;04:49:FC:A4:E3:68;192.168.113.69
66;1;D4:36:39:1B:1F:4C;192.168.40.100
66;2;90:70:65:34:A1:06;192.168.40.97
66;3;D4:36:39:1F:9F:56;192.168.40.96
66;4;D4:36:39:1A:F2:60;192.168.40.99
66;5;50:8C:B1:F3:F9:5A;192.168.40.98
66;6;D4:36:39:1F:C3:9F;192.168.40.101
66;7;E8:EB:11:8E:38:3E;192.168.40.89
66;8;9C:1D:58:48:11:E1;192.168.40.91
66;9;C8:FD:19:C5:34:FA;192.168.40.94
66;10;7C:38:66:0F:D1:CE;192.168.40.92
66;11;D4:36:39:1E:A9:1B;192.168.40.95
66;12;7C:38:66:01:58:17;192.168.40.90
66;13;90:70:65:34:27:3A;192.168.40.86
66;14;D4:36:39:0A:35:CC;192.168.40.93
66;15;7C:38:66:1D:48:BC;192.168.40.88
66;16;E8:EB:11:CF:FC:78;192.168.40.87
102;1;3C:A3:08:75:69:EB;192.168.119.16
102;2;3C:A3:08:47:64:FE;192.168.119.15
102;3;3C:A3:08:47:C8:90;192.168.118.179
102;4;94:E3:6D:BD:6D:AF;192.168.118.176
102;5;36:DB:2B:29:98:A5;192.168.115.132
102;6;30:6B:38:9B:40:57;192.168.118.107
102;7;1E:74:4E:D2:50:D4;192.168.118.121
102;8;00:68:89:1A:1E:C9;192.168.115.135
102;9;06:A8:F5:1F:CF:0E;192.168.118.117
102;10;00:9D:BB:AE:D0:A1;192.168.114.114
102;11;0E:71:F4:77:5E:58;192.168.115.63
102;12;02:D1:3F:BE:06:17;192.168.118.112
102;13;00:09:94:66:AC:A2;192.168.115.43
102;14;12:5B:4E:CA:56:23;192.168.115.21
102;15;00:CB:65:57:C4:70;192.168.118.115
102;16;00:70:F3:2A:89:BB;192.168.118.125
102;17;00:D3:E0:53:F4:08;192.168.114.116
102;18;00:DB:82:F7:1F:2B;192.168.118.120
102;19;42:12:DF:93:E4:54;192.168.118.122
102;20;0A:0E:C3:D8:C2:5F;192.168.115.60
102;21;00:E5:38:74:2E:15;192.168.118.124
102;22;00:A7:BF:21:06:FB;192.168.115.61
102;23;00:A3:DC:7D:CF:47;192.168.115.53
102;24;00:BC:3C:58:6A:99;192.168.118.106
102;25;00:D8:47:30:C3:6D;192.168.118.126
102;26;00:C6:FC:BA:A1:CE;192.168.118.113
102;27;00:81:58:38:B6:05;192.168.118.109
102;28;3E:A6:28:43:27:A4;192.168.118.105
102;29;56:75:97:7E:D4:E4;192.168.115.50
102;30;08:70:FC:F7:78:B0;192.168.118.103
102;31;02:21:4E:EB:A0:C7;192.168.114.117
102;32;00:9F:A3:CA:97:5C;192.168.115.55
102;33;00:DB:9A:92:3B:B5;192.168.118.100
102;34;42:15:F7:54:A8:9F;192.168.115.111
102;35;3C:C8:6F:E6:F1:75;192.168.118.98
102;36;00:DD:5D:40:04:50;192.168.117.188
102;37;00:6D:89:46:E0:2F;192.168.115.98
102;38;00:4C:4D:C7:92:E7;192.168.115.33
102;39;00:50:D0:A0:03:5C;192.168.118.94
102;40;00:4F:D9:29:56:29;192.168.115.108
102;41;06:C5:E0:17:D2:46;192.168.115.45
102;42;54:46:D0:6B:00:C4;192.168.118.91
102;43;00:DF:F6:F8:7B:AD;192.168.118.90
102;44;3E:73:A1:1A:85:00;192.168.115.37
102;45;52:88:71:74:8E:B7;192.168.118.88
102;46;54:09:9C:D7:96:4E;192.168.118.87
102;47;00:00:A3:C0:60:B9;192.168.115.41
102;48;00:F2:8A:A5:AB:B4;192.168.118.85
108;1;2E:E0:64:50:B8:44;192.168.115.133
108;2;00:B1:C6:74:39:FE;192.168.115.118
108;3;62:D3:0D:B3:CE:62;192.168.115.123
108;4;04:8E:C7:6C:EE:2A;192.168.115.134
108;5;00:25:CA:0A:38:58;192.168.115.89
108;6;00:5C:F1:7C:48:63;192.168.115.92
108;7;00:87:50:E5:D7:E3;192.168.115.137
108;8;10:E3:65:27:2A:B5;192.168.115.83
108;9;00:3E:A7:E3:DA:D2;192.168.115.73
108;10;20:1F:6E:C7:D5:9F;192.168.115.77
108;11;00:FF:4F:44:CC:2B;192.168.115.143
108;12;38:E9:1A:5E:26:90;192.168.115.101
108;13;04:BE:80:1D:0D:D8;192.168.115.84
108;14;00:3A:71:2A:68:E5;192.168.115.70
108;15;00:95:2B:B8:93:22;192.168.115.90
108;16;00:E1:18:A2:7A:89;192.168.115.100
108;17;00:90:58:B1:92:BB;192.168.115.81
108;18;1A:CD:F1:75:38:42;192.168.115.51
108;19;30:EB:E1:1B:CC:C5;192.168.114.82
108;20;00:07:3A:AF:9F:D8;192.168.115.44
108;21;36:52:D0:E5:05:D3;192.168.115.46
108;22;00:3D:35:FD:E7:F5;192.168.115.67
108;23;00:AD:BC:DD:5F:8C;192.168.115.68
108;24;00:43:5E:AF:B5:EF;192.168.114.81
108;25;04:7D:6F:62:80:91;192.168.113.183
108;26;08:07:84:DB:9A:59;192.168.115.14
108;27;00:FD:6B:76:D1:2D;192.168.114.9
108;28;04:6E:C8:68:75:59;192.168.115.150
108;29;02:61:26:A1:4E:C2;192.168.114.85
108;30;22:CB:C1:08:6C:6B;192.168.114.84
108;31;28:CB:37:7B:02:78;192.168.115.151
108;32;08:6F:80:7F:FF:91;192.168.115.140
108;33;00:7F:00:C3:66:6D;192.168.115.154
108;34;00:D4:4F:AF:2D:E6;192.168.115.156
108;35;00:E1:E7:F0:96:8E;192.168.115.131
108;36;1C:8B:DF:85:8B:C1;192.168.114.83
108;37;32:11:F5:AB:48:21;192.168.115.20
108;38;00:C9:D1:80:18:91;192.168.113.244
108;39;62:50:E0:77:7A:6C;192.168.115.152
108;40;62:13:5D:E1:DA:03;192.168.115.128
108;41;00:86:F2:85:9E:3D;192.168.115.1
108;42;02:B6:AF:86:AC:DE;192.168.115.117
108;43;00:D0:BD:99:CD:BE;192.168.115.149
108;44;02:D8:C9:5B:CD:D3;192.168.115.136
108;45;00:F9:42:C8:1B:C2;192.168.115.148
108;46;04:3C:E9:55:CF:04;192.168.115.147
108;47;00:38:95:07:6B:C9;192.168.115.138
108;48;10:92:20:D4:B2:2B;192.168.115.102
109;1;90:70:65:BA:FB:10;192.168.118.175
109;2;3C:A3:08:4B:D4:1D;192.168.119.153
109;3;90:70:65:BA:FB:2B;192.168.119.152
109;4;3C:A3:08:58:5A:C4;192.168.118.178
109;5;3C:A3:08:5B:31:A8;192.168.115.82
109;6;04:53:DE:70:BE:11;192.168.113.159
109;7;00:4B:B6:27:ED:76;192.168.113.157
109;8;00:0C:29:62:03:BF;192.168.113.158
109;9;0E:27:96:7F:1B:F6;192.168.113.150
109;10;00:7C:E2:99:33:FB;192.168.113.148
109;11;3E:AF:C5:F3:E7:16;192.168.113.149
109;12;06:04:9C:79:21:37;192.168.113.154
109;13;4C:4F:C7:7A:5E:4B;192.168.113.136
109;14;08:66:D0:B2:C8:F7;192.168.113.137
109;15;00:78:78:F0:2A:E8;192.168.113.140
109;16;40:26:5F:93:55:9C;192.168.113.139
109;17;00:41:48:59:CD:0A;192.168.113.138
109;18;2C:A7:AF:06:C3:9E;192.168.113.141
109;19;5E:02:40:3E:E0:8C;192.168.113.144
109;20;00:D9:3A:BD:FF:04;192.168.113.142
109;21;00:45:2D:CF:5A:93;192.168.113.143
109;22;06:7D:39:18:84:34;192.168.113.147
109;23;4E:9A:FC:D1:57:C5;192.168.113.145
109;24;00:1E:4D:18:0C:BE;192.168.113.146
109;25;2E:FA:78:17:9C:AD;192.168.113.169
109;26;60:22:A9:C9:EC:0A;192.168.113.172
109;27;00:BB:C5:B6:B0:B7;192.168.113.174
109;28;0C:FF:09:5E:0C:48;192.168.113.173
109;29;00:F3:9E:40:05:18;192.168.113.177
109;30;54:BD:30:11:B5:6E;192.168.113.176
109;31;00:3E:44:43:DE:7D;192.168.113.178
109;32;00:D6:C1:F7:F5:F1;192.168.113.175
109;33;08:1A:F5:2D:CD:9C;192.168.113.179
109;34;00:FC:7D:1D:B1:FE;192.168.113.180
109;35;04:43:ED:97:1D:32;192.168.113.181
109;36;00:B1:31:B0:18:18;192.168.113.182
109;37;3E:B5:F2:8E:14:34;192.168.113.160
109;38;00:BE:31:F6:AB:63;192.168.113.161
109;39;08:5C:8B:FB:D6:4E;192.168.113.163
109;40;4A:9D:94:19:2E:22;192.168.113.162
109;41;00:E1:91:E4:51:03;192.168.113.164
109;42;60:5E:A6:3A:A5:E2;192.168.113.87
109;43;08:F3:19:40:97:39;192.168.113.168
109;44;00:6B:78:DC:4B:88;192.168.114.168
109;45;1E:89:58:24:BF:95;192.168.113.170
109;46;46:BF:73:4E:84:8F;192.168.113.171
109;47;00:BD:4E:1E:B3:D6;192.168.113.166
109;48;06:D2:35:87:FD:5E;192.168.113.165
110;1;94:E3:6D:D8:65:9B;192.168.114.155
110;2;50:33:8B:53:DB:A8;192.168.119.156
110;3;3C:A3:08:1E:28:7D;192.168.119.245
110;4;3C:A3:08:29:41:65;192.168.119.155
110;5;38:D2:69:2C:64:86;192.168.119.158
110;6;90:70:65:BA:DF:5D;192.168.119.157
110;7;50:33:8B:36:F9:F2;192.168.118.211
110;8;00:2B:BE:95:50:B2;192.168.113.103
110;9;4E:1B:26:F4:45:88;192.168.113.104
110;10;00:DF:21:51:2B:6E;192.168.113.102
110;11;06:38:10:29:EC:70;192.168.113.101
110;12;32:ED:7A:3B:12:B8;192.168.113.100
110;13;00:C9:2D:47:2C:32;192.168.113.99
110;14;5C:94:64:62:10:CC;192.168.113.97
110;15;00:75:5C:14:45:CC;192.168.113.98
110;16;22:2D:46:B8:1A:8D;192.168.113.94
110;17;00:06:D3:38:42:2D;192.168.113.96
110;18;00:16:34:AC:8B:3E;192.168.113.95
110;19;00:20:19:38:1E:61;192.168.113.93
110;20;10:6C:19:F7:17:73;192.168.113.92
110;21;08:A8:B0:2C:DB:0A;192.168.113.91
110;22;00:D6:6F:76:CF:9F;192.168.113.89
110;23;44:ED:9F:08:74:EE;192.168.113.90
110;24;02:D9:36:4B:C8:A3;192.168.113.88
110;25;00:59:27:36:4A:69;192.168.113.134
110;26;04:D8:D7:9A:8A:65;192.168.113.133
110;27;00:49:51:DB:38:33;192.168.113.132
110;28;00:5B:3B:52:BF:9C;192.168.113.135
110;29;02:66:BE:00:D3:49;192.168.113.130
110;30;00:51:E1:A8:15:D7;192.168.113.131
110;31;02:11:5C:CD:26:C2;192.168.113.129
110;32;5E:1E:62:97:9C:17;192.168.113.128
110;33;60:1B:8A:5F:95:66;192.168.113.127
110;34;2A:1C:3B:64:EF:8B;192.168.113.126
110;35;02:98:F5:6F:F4:29;192.168.113.125
110;36;04:7A:65:F7:BB:31;192.168.113.124
110;37;1A:30:FF:AD:CC:CB;192.168.113.123
110;38;00:7C:CB:9B:E1:C5;192.168.113.122
110;39;04:A2:D9:BB:5E:B7;192.168.113.121
110;40;06:3A:63:80:31:FF;192.168.113.120
110;41;34:30:72:D1:FC:65;192.168.113.119
110;42;0E:7C:D0:D1:8A:F0;192.168.113.118
110;43;50:33:8B:50:62:96;192.168.119.211
110;44;9C:1D:58:ED:4F:FC;192.168.119.208
110;45;3C:A3:08:25:0F:7F;192.168.119.210
110;46;3C:A3:08:46:5A:E9;192.168.114.132
110;47;3C:A3:08:46:BE:94;192.168.119.213
110;48;3C:A3:08:46:46:62;192.168.114.135
113;1;00:ED:A2:F5:AF:0C;192.168.112.203
113;2;00:2D:BA:AB:33:6D;192.168.112.195
113;3;06:CB:A3:89:6E:ED;192.168.112.200
113;4;58:A5:15:8E:79:A3;192.168.112.184
113;5;00:D2:44:D7:C5:7D;192.168.112.197
113;6;00:31:E7:35:9F:A6;192.168.112.204
113;7;00:C6:47:74:2B:2C;192.168.112.201
113;8;62:46:38:40:90:E3;192.168.112.196
113;9;58:D5:90:16:8C:9F;192.168.112.185
113;10;44:5A:B6:D0:D6:EF;192.168.112.187
113;11;00:19:DC:FD:9F:3F;192.168.112.188
113;12;02:EA:9F:AC:B2:D6;192.168.112.183
113;13;46:7B:67:A1:3F:C3;192.168.112.199
113;14;06:55:F2:65:66:E9;192.168.112.186
113;15;00:C8:B2:A8:7F:AF;192.168.112.181
113;16;42:F7:8B:03:F6:6A;192.168.112.182
113;17;00:CC:2A:9E:9D:5D;192.168.112.190
113;18;5E:27:0B:0D:0B:D6;192.168.112.192
113;19;48:FD:32:09:77:EC;192.168.112.194
113;20;48:3E:59:36:17:50;192.168.112.189
113;21;00:53:38:95:4F:1B;192.168.112.202
113;22;20:0B:A8:80:59:DD;192.168.112.191
113;23;00:E9:DF:FC:31:DF;192.168.112.193
113;24;00:3A:1A:BC:59:D6;192.168.112.198
113;25;06:CE:60:03:B5:FD;192.168.112.174
113;26;50:7F:F6:5D:E0:73;192.168.112.178
113;27;08:53:DA:88:CB:71;192.168.112.161
113;28;08:C2:30:9F:1F:CC;192.168.112.160
113;29;08:6B:A2:BE:5B:61;192.168.112.177
113;30;00:AB:0C:E8:A8:43;192.168.112.158
113;31;18:00:EC:C8:67:48;192.168.112.162
113;32;3C:7F:CE:FB:17:5F;192.168.112.159
113;33;00:4A:23:80:CF:09;192.168.112.165
113;34;00:29:3D:E6:82:68;192.168.112.157
113;35;36:D3:A9:97:1F:4C;192.168.112.163
113;36;00:00:FF:73:9B:05;192.168.112.166
113;37;06:66:76:FA:A2:1F;192.168.112.173
113;38;04:90:70:88:20:C1;192.168.112.167
113;39;40:FA:9E:8E:D5:14;192.168.114.169
113;40;00:DE:38:F0:DF:AF;192.168.112.168
113;41;06:2E:2D:6A:CB:79;192.168.112.179
113;42;04:71:19:82:0E:80;192.168.112.180
113;43;00:6D:C9:C2:F6:66;192.168.112.170
113;44;52:FD:D5:1B:06:62;192.168.112.164
113;45;08:F3:AE:88:4D:ED;192.168.112.171
113;46;06:1A:FC:40:4B:C2;192.168.112.176
113;47;00:51:BC:DD:34:63;192.168.112.169
113;48;22:9B:21:6F:D2:F1;192.168.112.172
114;1;00:24:58:46:46:1B;192.168.112.153
114;2;00:D7:BC:2C:58:9D;192.168.112.152
114;3;48:60:D1:E7:0A:39;192.168.112.151
114;4;04:6B:86:46:CE:6A;192.168.112.150
114;5;06:02:4D:D3:A0:4E;192.168.112.149
114;6;00:A9:AC:6B:21:42;192.168.112.147
114;7;04:E4:A2:43:37:A2;192.168.112.146
114;8;00:FF:BC:2A:57:75;192.168.112.148
114;9;5C:19:0F:FA:61:33;192.168.112.143
114;10;08:1C:77:03:F1:2A;192.168.112.142
114;11;4C:D3:0C:E1:B5:11;192.168.112.145
114;12;00:88:55:D3:DC:8F;192.168.112.144
120;1;26:D7:E8:D1:7F:AE;192.168.118.74
120;2;16:F8:E2:22:1F:9F;192.168.118.75
120;3;90:70:65:6D:58:18;192.168.119.14
120;4;3C:A3:08:1A:0E:21;192.168.119.13
120;5;90:70:65:9B:A5:F6;192.168.119.12
120;6;3C:A3:08:4B:A9:5B;192.168.119.11
120;7;3C:A3:08:24:75:1B;192.168.119.10
120;8;50:33:8B:54:6C:32;192.168.119.9
120;9;3C:A3:08:1F:F2:EC;192.168.119.8
120;10;50:33:8B:4E:7F:CC;192.168.119.7
120;11;3C:A3:08:47:9B:CE;192.168.119.6
120;12;90:70:65:68:FF:D0;192.168.119.5
120;13;3C:A3:08:47:64:9E;192.168.119.4
120;14;3C:A3:08:47:6F:53;192.168.119.3
120;15;90:70:65:8C:B7:BD;192.168.119.2
120;16;3C:A3:08:1A:27:D7;192.168.119.1
120;17;3C:A3:08:47:4D:59;192.168.115.153
120;18;3C:A3:08:47:5F:3B;192.168.118.255
120;19;3C:A3:08:51:A7:0F;192.168.118.254
120;20;50:33:8B:50:62:AE;192.168.115.164
120;21;94:E3:6D:AE:2B:4B;192.168.118.252
120;22;90:70:65:9B:C0:A1;192.168.118.251
120;23;50:33:8B:50:5C:4B;192.168.115.48
120;24;3C:A3:08:5F:85:70;192.168.118.249
120;25;94:E3:6D:B7:78:AD;192.168.118.248
120;26;3C:A3:08:4B:F8:52;192.168.118.247
120;27;3C:A3:08:43:30:95;192.168.118.246
120;28;94:E3:6D:AE:45:4C;192.168.118.245
120;29;3C:A3:08:4B:F8:34;192.168.118.244
120;30;3C:A3:08:47:9B:F8;192.168.118.243
120;31;3C:A3:08:4B:EB:CD;192.168.118.242
120;32;3C:A3:08:47:96:05;192.168.118.241
120;33;3C:A3:08:60:05:DE;192.168.118.240
120;34;94:E3:6D:B8:46:B4;192.168.118.239
120;35;3C:A3:08:42:DF:0B;192.168.118.237
120;36;94:E3:6D:B8:51:67;192.168.118.238
120;37;3C:A3:08:46:4B:27;192.168.115.157
120;38;3C:A3:08:60:F0:C4;192.168.118.235
120;39;3C:A3:08:47:5F:56;192.168.118.234
120;40;3C:A3:08:58:9A:E2;192.168.114.5
120;41;3C:A3:08:47:86:86;192.168.118.232
120;42;94:E3:6D:B7:86:D5;192.168.118.231
120;43;90:70:65:8C:84:B8;192.168.118.230
120;44;3C:A3:08:47:A2:4F;192.168.118.229
120;45;3C:A3:08:20:05:64;192.168.118.228
120;46;3C:A3:08:19:F1:45;192.168.118.227
120;47;3C:A3:08:47:CB:35;192.168.118.224
120;48;94:E3:6D:B8:56:77;192.168.118.226
121;1;00:74:B2:3A:A9:86;192.168.114.113
121;2;4E:3F:EE:13:52:6D;192.168.114.115
121;3;54:45:47:6C:10:98;192.168.115.125
121;4;4E:4D:1C:F5:58:8E;192.168.118.133
121;5;00:41:BD:83:35:91;192.168.113.155
121;6;5C:41:73:68:38:84;192.168.113.151
121;7;04:64:00:0D:BB:6B;192.168.113.153
121;8;3C:A3:08:47:9B:83;192.168.118.182
121;9;50:33:8B:50:A6:04;192.168.118.180
121;10;50:33:8B:50:82:89;192.168.115.139
121;11;3C:A3:08:4B:C0:37;192.168.118.181
121;12;3C:A3:08:25:20:00;192.168.118.185
121;13;50:33:8B:50:92:54;192.168.115.142
121;14;90:70:65:9B:A5:C6;192.168.118.186
121;15;3C:A3:08:47:73:AA;192.168.118.187
121;16;3C:A3:08:4B:AE:0E;192.168.118.188
121;17;3C:A3:08:50:32:B3;192.168.118.191
121;18;3C:A3:08:1A:07:8E;192.168.118.193
121;19;3C:A3:08:47:5F:08;192.168.118.190
121;20;90:70:65:BA:88:9B;192.168.118.210
121;21;50:33:8B:50:6E:E3;192.168.115.75
121;22;3C:A3:08:43:D6:92;192.168.118.208
121;23;3C:A3:08:47:64:DD;192.168.118.214
121;24;94:E3:6D:F6:48:E1;192.168.118.202
121;25;94:E3:6D:D8:65:AA;192.168.118.213
121;26;3C:A3:08:46:27:F0;192.168.118.196
121;27;3C:A3:08:47:86:CE;192.168.118.194
121;28;90:70:65:91:2F:CE;192.168.114.136
121;29;3C:A3:08:4B:6B:3B;192.168.118.212
121;30;90:70:65:8C:4F:C6;192.168.118.207
121;31;3C:A3:08:47:AE:E0;192.168.118.197
121;32;3C:A3:08:1D:2C:45;192.168.118.199
121;33;94:E3:6D:B7:74:15;192.168.114.137
121;34;3C:A3:08:47:96:68;192.168.118.216
121;35;50:33:8B:50:7C:08;192.168.118.192
121;36;94:E3:6D:AE:51:F1;192.168.118.205
121;37;3C:A3:08:75:73:3A;192.168.118.195
121;38;94:E3:6D:AE:27:26;192.168.118.209
121;39;90:70:65:8C:90:37;192.168.118.201
121;40;3C:A3:08:50:F9:4F;192.168.118.215
121;41;50:33:8B:50:7C:17;192.168.118.206
121;42;3C:A3:08:60:C6:DC;192.168.118.204
121;43;3C:A3:08:47:9B:E0;192.168.118.222
121;44;3C:A3:08:26:A0:A2;192.168.118.221
121;45;3C:A3:08:42:DA:6F;192.168.118.220
121;46;3C:A3:08:48:25:04;192.168.118.219
121;47;3C:A3:08:4B:A6:4B;192.168.118.218
121;48;3C:A3:08:4B:A9:0D;192.168.118.217
122;1;18:EE:80:F5:77:C9;192.168.113.107
122;2;02:30:54:96:5D:C7;192.168.113.106
122;3;5A:E3:33:85:A5:01;192.168.113.110
122;4;0E:2B:24:23:6A:C4;192.168.113.109
122;5;1A:F5:2C:8F:93:8B;192.168.113.105
122;6;04:5A:04:14:C8:C2;192.168.113.156
122;7;2C:2C:D8:D2:47:62;192.168.113.152
122;8;18:93:D7:F7:C4:7E;192.168.119.151
122;9;3C:A3:08:47:8D:37;192.168.119.150
122;10;18:93:D7:E3:C2:19;192.168.119.149
122;11;3C:A3:08:60:AB:91;192.168.119.148
122;12;3C:A3:08:46:2F:95;192.168.119.147
122;13;3C:A3:08:75:5C:4A;192.168.119.146
122;14;3C:A3:08:46:7A:51;192.168.115.145
122;15;3C:A3:08:4B:B5:06;192.168.119.144
122;16;3C:A3:08:60:AB:A6;192.168.119.143
122;17;3C:A3:08:5F:F0:62;192.168.115.190
122;18;94:E3:6D:AE:51:DC;192.168.119.141
122;19;3C:A3:08:50:6E:64;192.168.119.135
122;20;3C:A3:08:60:D7:91;192.168.119.140
122;21;3C:A3:08:47:5F:7D;192.168.119.138
122;22;90:70:65:6D:30:11;192.168.119.139
122;23;3C:A3:08:42:FD:73;192.168.119.137
122;24;3C:A3:08:55:FE:43;192.168.119.136
122;25;3C:A3:08:46:23:4E;192.168.119.134
122;26;90:70:65:BA:8F:AE;192.168.119.133
122;27;90:70:65:90:A9:EF;192.168.119.132
122;28;3C:A3:08:46:2F:CE;192.168.119.131
122;29;3C:A3:08:5A:0A:F2;192.168.119.130
122;30;3C:A3:08:46:56:C4;192.168.119.129
122;31;3C:A3:08:50:10:5D;192.168.119.128
122;32;3C:A3:08:43:1D:CE;192.168.119.127
122;33;3C:A3:08:60:F0:FA;192.168.119.126
122;35;3C:A3:08:51:A7:27;192.168.119.125
122;36;3C:A3:08:46:B6:15;192.168.119.124
122;37;3C:A3:08:1C:FE:4F;192.168.119.123
122;38;3C:A3:08:4B:41:8C;192.168.119.122
122;39;3C:A3:08:4B:D4:47;192.168.119.121
122;40;90:70:65:BA:F3:E3;192.168.119.120
122;42;94:E3:6D:AE:2B:33;192.168.119.119
122;43;50:33:8B:50:A6:43;192.168.119.118
122;44;50:33:8B:54:BA:9E;192.168.119.117
122;45;3C:A3:08:50:10:7B;192.168.119.116
122;46;3C:A3:08:5F:F0:50;192.168.115.200
122;47;3C:A3:08:48:36:01;192.168.119.114
122;48;3C:A3:08:5F:FD:2F;192.168.119.113
